ESPECIALIDAD;NOMBRE_DOCTOR;FECHA;HORA1;HORA2;HORA3
Pediatría;Shaun Murphy;20/07/2020,08:00,10:00,12:00
Ginecología;Gregory House;20/07/2020,15:00,17:00,19:00,
Medicina General;Hipócrates Zucaritas;20/07/2020,10:00,12:00,14:00
Pediatría;Heinz Doofenshmirtz;21/07/2020,09:00,11:00,13:00
Ginecología;Meper Diens Umirada;21/07/2020,16:00,18:00,20:00
Medicina General;Ibn Sina;21/07/2020,11:00,13:00,15:00	
Pediatría;Blowhole Espiráculo;22/07/2020,10:00,12:00,14:00
Ginecología;Edward Jenner;22/07/2020,14:00,16:00,18:00
Medicina General;Sir Joseph Lister;22/07/2020,13:00,15:00,17:00
